…
``` r
endia_ms_w_polyprot <- endia_ms %>%
  fuzzy_left_join(coxsackievirusB1_P08291, by = c("start", "end"),
                  match_fun = list(`>=`, `<=`)) %>% 
  drop_na()


get_peak_coordinates(ms_w_pprot_df = endia_ms_w_polyprot,
                     ev_prot_name = "VP1",
                     ev_prot_start_col = start.y,
                     condition = "cases")
```

    ## # A tibble: 70 × 5
    ##    window_start window_end moving_sum start   end
    ##           <dbl>      <dbl>      <int> <dbl> <dbl>
    ##  1          572        603       1875     1    32
    ##  2          573        604       2431     2    33
    ##  3          575        606       2391     4    35
    ##  4          576        607       2391     5    36
    ##  5          577        608       2416     6    37
    ##  6          579        610       2453     8    39
    ##  7          580        611       1071     9    40
    ##  8          581        612       1071    10    41
    ##  9          583        614       1071    12    43
    ## 10          584        615        500    13    44
    ## # ℹ 60 more rows

- `start`: 1 = `window_start`: 572
- `end`: 14 = `window_start`: 585

``` r
endia_3d_cases_peak <- get_peak_coordinates(endia_ms_w_polyprot,
                     "3D",
                     start.y) 

endia_3d_cases_peak %>% dplyr::slice(13:34)
```

    ## # A tibble: 22 × 5
    ##    window_start window_end moving_sum start   end
    ##           <dbl>      <dbl>      <int> <dbl> <dbl>
    ##  1         1734       1765        737    13    44
    ##  2         1735       1766       1610    14    45
    ##  3         1736       1767       1608    15    46
    ##  4         1737       1768       1759    16    47
    ##  5         1738       1769       1011    17    48
    ##  6         1739       1770       1057    18    49
    ##  7         1740       1771       1719    19    50
    ##  8         1741       1772       1796    20    51
    ##  9         1742       1773       1799    21    52
    ## 10         1743       1774       1791    22    53
    ## # ℹ 12 more rows
…
