…
### Snippets

I noticed that in the `Evidence.Peptides` and `XR.peptides` columns
there are rows with peptide digits preceded by underscores and UniProt
IDs (e.g. P08318_22):

``` r
# find all rows with peptides that have an underscore in their name
endia_avarda_onset %>% filter(str_count(Evidence.Peptides, pattern =  "_") > 0) %>% 
  select(Evidence.Peptides, XR.peptides)
```

    ## # A tibble: 22 × 2
    ##    Evidence.Peptides                                                 XR.peptides
    ##    <chr>                                                             <chr>      
    ##  1 32211|33882|51101|56068|57736|P08318_22                           "89239|215…
    ##  2 9709|34273|63853|57733|32211|57734|32209|59729|33882|25300|65289… "38216|697…
    ##  3 9709|32211|33882|25300|25317|60278|11392|60291|25305|25319|25316… "71240|655…
    ##  4 32211|57734|33882|25307|11377|25305|25310|25298|25299|24444|6752… ""         
    ##  5 25300|65289|25317|60278|56317|25305|34790|25299|32215|25315|3224… "89239|893…
    ##  6 32211|25317|P08318_22                                             ""         
    ##  7 9709|9431|34177|57733|34960|32211|57734|32241|32209|33882|25312|… "2782|8923…
    ##  8 32211|33882|25317|25307|25314|25305|25319|6603|25311|25316|67523… "6978|8923…
    ##  9 9709|33882|25300|25313|11252|25305|61828|34099|9607|62011|P08318… ""         
    ## 10 11563|25314|25303|60281|25305|25310|25298|27182|25299|24444|3602… "32627"    
    ## # ℹ 12 more rows
…
