…
### Statistical comparison of the abundance of multiple genera between case and control

Get top most abundant genera in cases and controls

    ## # A tibble: 46 × 4
    ##    condition taxon_genus      genus_rpk total_rpk_overall
    ##    <chr>     <chr>                <dbl>             <dbl>
    ##  1 Case      Enterovirus       2335047.          7801436.
    ##  2 Control   Enterovirus       5466389.          7801436.
    ##  3 Case      Mastadenovirus     231447.          1036516.
    ##  4 Control   Mastadenovirus     805068.          1036516.
    ##  5 Case      Cytomegalovirus    153502.           703131.
    ##  6 Control   Cytomegalovirus    549629.           703131.
    ##  7 Case      Orthopneumovirus   158934.           593692.
    ##  8 Control   Orthopneumovirus   434758.           593692.
    ##  9 Case      Betacoronavirus    123632.           400782.
    ## 10 Control   Betacoronavirus    277150.           400782.
    ## # ℹ 36 more rows
…
*TODO:* 3 models failed to converge so must fix that. *TODO:* perhaps
add column with the warnings in output for each genus

    ## # A tibble: 23 × 10
    ##    genus      effect term  risk_ratio std.error statistic p.value ci_low ci_high
    ##    <chr>      <chr>  <chr>      <dbl>     <dbl>     <dbl>   <dbl>  <dbl>   <dbl>
    ##  1 Simplexvi… fixed  log_…      1.14     0.0714     2.02   0.0429  1.00     1.28
    ##  2 Orthopoxv… fixed  log_…      1.08     0.0635     1.31   0.190   0.963    1.21
    ##  3 Cytomegal… fixed  log_…      0.951    0.0547    -0.867  0.386   0.850    1.06
    ##  4 Orthohepa… fixed  log_…      1.06     0.0708     0.945  0.345   0.935    1.21
    ##  5 Enterovir… fixed  log_…      1.10     0.0781     1.30   0.194   0.954    1.26
    ##  6 Varicello… fixed  log_…      1.08     0.0838     0.945  0.345   0.924    1.25
    ##  7 Mastadeno… fixed  log_…      0.965    0.0533    -0.639  0.523   0.866    1.08
    ##  8 Rhadinovi… fixed  log_…      1.04     0.0636     0.655  0.513   0.923    1.17
    ##  9 Alphavirus fixed  log_…      1.07     0.0761     0.953  0.340   0.931    1.23
    ## 10 Alphacoro… fixed  log_…      1.15     0.0806     2.04   0.0414  1.01     1.32
    ## # ℹ 13 more rows
    ## # ℹ 1 more variable: p_adjust_BH <dbl>
…
    ## # A tibble: 25 × 10
    ##    genus      effect term  risk_ratio std.error statistic p.value ci_low ci_high
    ##    <chr>      <chr>  <chr>      <dbl>     <dbl>     <dbl>   <dbl>  <dbl>   <dbl>
    ##  1 Orthopoxv… fixed  log_…      1.41     0.388      1.25    0.213  0.821    2.42
    ##  2 Enterovir… fixed  log_…      1.82     1.42       0.771   0.441  0.395    8.42
    ##  3 Erythropa… fixed  log_…      1.03     0.0807     0.405   0.686  0.886    1.20
    ##  4 Mastadeno… fixed  log_…      0.747    0.160     -1.36    0.174  0.491    1.14
    ##  5 Betapolyo… fixed  log_…      1.06     0.0849     0.709   0.478  0.905    1.24
    ##  6 Rotavirus  fixed  log_…      0.941    0.139     -0.413   0.680  0.705    1.26
    ##  7 Simplexvi… fixed  log_…      1.09     0.138      0.650   0.516  0.847    1.39
    ##  8 Influenza… fixed  log_…      1.18     0.161      1.24    0.213  0.907    1.55
    ##  9 Influenza… fixed  log_…      1.13     0.127      1.05    0.293  0.902    1.41
    ## 10 Alphapapi… fixed  log_…      1.06     0.181      0.356   0.722  0.761    1.48
    ## # ℹ 15 more rows
    ## # ℹ 1 more variable: p_adjust_BH <dbl>
…
    ##                      df      AIC
    ## vigr_model_neg_binom  9 88.47271
    ## vigr_model_binomial   8 73.00261
    ## vigr_model_poisson    8 86.47268

------------------------------------------------------------------------

## Basic descriptive stats for total antibody response per genus in both cohorts :white_check_mark:

Get most total number of peptides per genus and percentage of the total

**VIGR**

    ## # A tibble: 150 × 4
    ##    taxon_genus       Condition total_abundance percentage
    ##    <chr>             <chr>               <dbl>      <int>
    ##  1 Enterovirus       Case              1645671         32
    ##  2 Enterovirus       Control           1283834         25
    ##  3 Mastadenovirus    Control            160603          3
    ##  4 Mastadenovirus    Case               112225          2
    ##  5 Simplexvirus      Control            109054          2
    ##  6 Influenzavirus A  Case               106308          2
    ##  7 Orthopneumovirus  Case               100889          2
    ##  8 Cytomegalovirus   Case                94492          1
    ##  9 Orthopneumovirus  Control             77846          1
    ## 10 Lymphocryptovirus Control             76871          1
    ## # ℹ 140 more rows

**ENDIA**

    ## # A tibble: 150 × 4
    ##    taxon_genus      condition total_abundance percentage
    ##    <chr>            <chr>               <dbl>      <int>
    ##  1 Enterovirus      Control            255727         41
    ##  2 Enterovirus      Case                90370         14
    ##  3 Cytomegalovirus  Control             31887          5
    ##  4 Mastadenovirus   Control             30538          4
    ##  5 Orthopneumovirus Control             20048          3
    ##  6 Mastadenovirus   Case                14651          2
    ##  7 Betacoronavirus  Control              7368          1
    ##  8 Orthopneumovirus Case                 6450          1
    ##  9 Cytomegalovirus  Case                 6295          1
    ## 10 Mamastrovirus    Control              5631          0
    ## # ℹ 140 more rows
…
